<?xml version="1.0" encoding="utf-8"?>
<!-- Generator: Adobe Illustrator 26.0.2, SVG Export Plug-In . SVG Version: 6.00 Build 0)  -->
<svg version="1.1" id="图层_1" xmlns="http://www.w3.org/2000/svg" xmlns:xlink="http://www.w3.org/1999/xlink" x="0px" y="0px"
	 viewBox="0 0 1024 1024" style="enable-background:new 0 0 1024 1024;" xml:space="preserve">
<style type="text/css">
	.st0{fill:#FFFFFF;}
</style>
<path class="st0" d="M186.5,819.2c2.56,0,5.12-0.26,7.68-0.64l215.3-37.76c2.56-0.51,4.99-1.66,6.78-3.58l542.59-542.59
	c4.99-4.99,4.99-13.06,0-18.05L746.11,3.71C743.68,1.28,740.48,0,737.02,0c-3.46,0-6.66,1.28-9.09,3.71L185.34,546.3
	c-1.92,1.92-3.07,4.22-3.58,6.78L144,768.38c-2.43,14.21,1.92,28.03,12.03,38.14C164.48,814.72,175.1,819.2,186.5,819.2z
	 M272.77,595.97l464.26-464.13l93.82,93.82L366.59,689.79l-113.79,20.1L272.77,595.97z M983.04,926.72H40.96
	C18.3,926.72,0,945.02,0,967.68v46.08c0,5.63,4.61,10.24,10.24,10.24h1003.52c5.63,0,10.24-4.61,10.24-10.24v-46.08
	C1024,945.02,1005.7,926.72,983.04,926.72z"/>
</svg>
