<?xml version="1.0" encoding="utf-8"?>
<!-- Generator: Adobe Illustrator 26.0.2, SVG Export Plug-In . SVG Version: 6.00 Build 0)  -->
<svg version="1.1" id="图层_1" xmlns="http://www.w3.org/2000/svg" xmlns:xlink="http://www.w3.org/1999/xlink" x="0px" y="0px"
	 viewBox="0 0 1024 1024" style="enable-background:new 0 0 1024 1024;" xml:space="preserve">
<style type="text/css">
	.st0{fill:#FFFFFF;}
</style>
<g>
	<path class="st0" d="M519.2,445.86c-3.66-5.12-10.74-5.12-14.39,0L376.86,622.69c-4.68,6.49-0.46,16.1,7.2,16.1h84.42v302.48
		c0,5.49,4.11,9.98,9.14,9.98h68.54c5.03,0,9.14-4.49,9.14-9.98V638.91h84.65c7.65,0,11.88-9.61,7.2-16.1L519.2,445.86z"/>
	<path class="st0" d="M854.02,330.68C801.7,179.94,668.39,72.75,512.23,72.75S222.75,179.82,170.43,330.56
		C72.53,358.64,0.22,456.1,0.22,571.9c0,137.89,102.24,249.57,228.36,249.57h45.81c5.03,0,9.14-4.49,9.14-9.98v-74.87
		c0-5.49-4.11-9.98-9.14-9.98h-45.81c-38.5,0-74.71-16.72-101.67-47.04c-26.85-30.2-41.12-70.88-39.87-113.06
		c1.03-32.94,11.31-63.89,29.93-89.97c19.08-26.58,45.81-45.92,75.51-54.53l43.3-12.35L251.66,364
		c9.82-28.45,23.53-55.03,40.78-79.11c17.02-23.96,37.24-44.8,59.86-62.27c46.95-36.06,102.24-55.16,159.93-55.16
		s112.98,19.09,159.93,55.16c22.73,17.47,42.84,38.43,59.86,62.27c17.25,24.08,30.96,50.79,40.78,79.11l15.76,45.55l43.18,12.48
		c61.92,18.22,105.21,79.74,105.21,149.87c0,41.3-14.74,80.24-41.47,109.44c-26.73,29.2-62.26,45.3-100.07,45.3h-45.81
		c-5.03,0-9.14,4.49-9.14,9.98v74.87c0,5.49,4.11,9.98,9.14,9.98h45.81c126.12,0,228.36-111.68,228.36-249.57
		C1023.78,456.22,951.69,358.89,854.02,330.68z"/>
</g>
</svg>
