<?xml version="1.0" encoding="utf-8"?>
<!-- Generator: Adobe Illustrator 26.0.2, SVG Export Plug-In . SVG Version: 6.00 Build 0)  -->
<svg version="1.1" id="图层_1" xmlns="http://www.w3.org/2000/svg" xmlns:xlink="http://www.w3.org/1999/xlink" x="0px" y="0px"
	 viewBox="0 0 1024 1024" style="enable-background:new 0 0 1024 1024;" xml:space="preserve">
<style type="text/css">
	.st0{fill:#FFFFFF;}
</style>
<path class="st0" d="M599.87,831.52h47.93c13.24,0,23.96-10.73,23.96-23.96V376.2c0-13.24-10.73-23.96-23.96-23.96h-47.93
	c-13.24,0-23.96,10.73-23.96,23.96v431.36C575.9,820.79,586.63,831.52,599.87,831.52z M927.38,160.52H762.81l-67.9-113.23
	c-17.33-28.88-48.55-46.55-82.24-46.53H411.33c-33.67,0-64.87,17.66-82.2,46.53l-67.94,113.23H96.62
	c-17.65,0-31.95,14.31-31.95,31.95v31.95c0,17.65,14.31,31.95,31.95,31.95h31.95v671c0,52.94,42.92,95.86,95.86,95.86h575.14
	c52.94,0,95.86-42.92,95.86-95.86v-671h31.95c17.65,0,31.95-14.31,31.95-31.95v-31.95C959.33,174.83,945.03,160.52,927.38,160.52z
	 M407.84,102.43c2.17-3.62,6.09-5.82,10.3-5.81h187.72c4.21,0,8.12,2.2,10.28,5.81l34.87,58.09H372.99L407.84,102.43z
	 M799.57,927.38H224.43v-671h575.14V927.38z M376.2,831.52h47.93c13.24,0,23.96-10.73,23.96-23.96V376.2
	c0-13.24-10.73-23.96-23.96-23.96H376.2c-13.24,0-23.96,10.73-23.96,23.96v431.36C352.24,820.79,362.97,831.52,376.2,831.52z"/>
</svg>
