<svg id="Component_254_1" data-name="Component 254 – 1" xmlns="http://www.w3.org/2000/svg" xmlns:xlink="http://www.w3.org/1999/xlink" width="29.891" height="29.891" viewBox="0 0 29.891 29.891">
  <defs>
    <clipPath id="clip-path">
      <path id="Path_59" data-name="Path 59" d="M.021-15.033A14.946,14.946,0,0,0,14.967-.087,14.946,14.946,0,0,0,29.913-15.033,14.946,14.946,0,0,0,14.967-29.979,14.946,14.946,0,0,0,.021-15.033Z" fill="none"/>
    </clipPath>
    <clipPath id="clip-path-2">
      <path id="Path_58" data-name="Path 58" d="M-340,652H1100V-560H-340Z" fill="none"/>
    </clipPath>
    <clipPath id="clip-path-3">
      <path id="Path_62" data-name="Path 62" d="M8.668-10.957l4.94,4.94L7.679-.087l-1.236-3.7-3.7-1.236Zm12.6,0L27.2-5.028l-3.7,1.236-1.236,3.7L16.326-6.017Z" fill="none"/>
    </clipPath>
    <clipPath id="clip-path-5">
      <path id="Path_65" data-name="Path 65" d="M16.326-27.836l9.049,5.224a2.717,2.717,0,0,1,1.359,2.353v10.45a2.716,2.716,0,0,1-1.359,2.353L16.326-2.23a2.719,2.719,0,0,1-2.717,0L4.559-7.454A2.717,2.717,0,0,1,3.2-9.808v-10.45a2.715,2.715,0,0,1,1.359-2.353l9.049-5.226A2.719,2.719,0,0,1,16.326-27.836Z" fill="none"/>
    </clipPath>
    <clipPath id="clip-path-7">
      <path id="Path_68" data-name="Path 68" d="M16.729-16.733l-.02-.026,4.245-7.436L18.3-25.88l-3.332,8.13L11.6-25.971,8.976-24.2l4.249,7.443-.02.026-9.327-2.8L3.853-16.24,12.691-14.8l.019.083L4.3-8.759,6.887-6.617l7.082-6.539L13.3-2.8h3.338l-.673-10.351,7.019,6.481,2.655-2.083-8.414-5.954.019-.083,8.795-1.437-.111-3.261-9.2,2.76Z" fill="none"/>
    </clipPath>
    <clipPath id="clip-path-9">
      <path id="Path_70" data-name="Path 70" d="M16.326-9.6h2.717v-10.87H16.326Z" fill="none"/>
    </clipPath>
    <clipPath id="clip-path-10">
      <path id="Path_73" data-name="Path 73" d="M19.043-20.468v2.717H10.891v-2.717Zm0,8.152V-9.6H10.891v-2.717Zm0-4.076v2.717H10.891v-2.717Z" fill="none"/>
    </clipPath>
    <clipPath id="clip-path-12">
      <path id="Path_76" data-name="Path 76" d="M15.646-26.659a1.356,1.356,0,0,0-1.359,0L5.239-21.434a1.361,1.361,0,0,0-.679,1.177v10.45a1.361,1.361,0,0,0,.679,1.177l9.049,5.224a1.356,1.356,0,0,0,1.359,0L24.7-8.631a1.361,1.361,0,0,0,.679-1.177v-10.45a1.361,1.361,0,0,0-.679-1.177Zm.679-1.177,9.049,5.224a2.717,2.717,0,0,1,1.359,2.353v10.45a2.716,2.716,0,0,1-1.359,2.353L16.326-2.23a2.719,2.719,0,0,1-2.717,0L4.559-7.454A2.717,2.717,0,0,1,3.2-9.808v-10.45a2.715,2.715,0,0,1,1.359-2.353l9.049-5.226A2.719,2.719,0,0,1,16.326-27.836Z" fill="none"/>
    </clipPath>
  </defs>
  <g id="Group_59" data-name="Group 59" transform="translate(-0.021 29.979)" clip-path="url(#clip-path)">
    <g id="Group_58" data-name="Group 58" clip-path="url(#clip-path-2)">
      <path id="Path_57" data-name="Path 57" d="M-.979-30.979H30.913V.913H-.979Z" fill="#f9eada"/>
    </g>
  </g>
  <g id="Group_61" data-name="Group 61" transform="translate(-0.021 29.979)" clip-path="url(#clip-path-3)">
    <g id="Group_60" data-name="Group 60" clip-path="url(#clip-path-2)">
      <path id="Path_60" data-name="Path 60" d="M1.739-11.957H28.2V.913H1.739Z" fill="#a0510d"/>
    </g>
  </g>
  <g id="Group_63" data-name="Group 63" transform="translate(-0.021 29.979)" clip-path="url(#clip-path-5)">
    <g id="Group_62" data-name="Group 62" clip-path="url(#clip-path-2)">
      <path id="Path_63" data-name="Path 63" d="M2.2-29.321H27.733V-.745H2.2Z" fill="#e09448"/>
    </g>
  </g>
  <g id="Group_65" data-name="Group 65" transform="translate(-0.021 29.979)" clip-path="url(#clip-path-7)">
    <g id="Group_64" data-name="Group 64" clip-path="url(#clip-path-2)">
      <path id="Path_66" data-name="Path 66" d="M2.853-26.971H27.036V-1.8H2.853Z" fill="#eca057"/>
    </g>
  </g>
  <g id="Group_66" data-name="Group 66" transform="translate(-0.021 29.979)" clip-path="url(#clip-path-9)">
    <path id="Path_69" data-name="Path 69" d="M15.326-21.468h4.717V-8.6H15.326Z" fill="#fff"/>
  </g>
  <g id="Group_68" data-name="Group 68" transform="translate(-0.021 29.979)" clip-path="url(#clip-path-10)">
    <g id="Group_67" data-name="Group 67" clip-path="url(#clip-path-2)">
      <path id="Path_71" data-name="Path 71" d="M9.891-21.468H20.043V-8.6H9.891Z" fill="#fff"/>
    </g>
  </g>
  <g id="Group_70" data-name="Group 70" transform="translate(-0.021 29.979)" clip-path="url(#clip-path-12)">
    <g id="Group_69" data-name="Group 69" clip-path="url(#clip-path-2)">
      <path id="Path_74" data-name="Path 74" d="M2.2-29.321H27.733V-.745H2.2Z" fill="#c1671b"/>
    </g>
  </g>
</svg>
