<svg id="Component_252_1" data-name="Component 252 – 1" xmlns="http://www.w3.org/2000/svg" xmlns:xlink="http://www.w3.org/1999/xlink" width="29.891" height="29.891" viewBox="0 0 29.891 29.891">
  <defs>
    <clipPath id="clip-path">
      <path id="Path_21" data-name="Path 21" d="M.021-163.033a14.946,14.946,0,0,0,14.946,14.946,14.946,14.946,0,0,0,14.946-14.946,14.946,14.946,0,0,0-14.946-14.946A14.946,14.946,0,0,0,.021-163.033Z" fill="none"/>
    </clipPath>
    <clipPath id="clip-path-2">
      <path id="Path_20" data-name="Path 20" d="M-340,652H1100V-560H-340Z" fill="none"/>
    </clipPath>
    <clipPath id="clip-path-3">
      <path id="Path_24" data-name="Path 24" d="M8.668-158.957l4.94,4.94-5.929,5.929-1.236-3.7-3.7-1.236Zm12.6,0,5.929,5.929-3.7,1.236-1.236,3.7-5.929-5.929Z" fill="none"/>
    </clipPath>
    <clipPath id="clip-path-5">
      <path id="Path_27" data-name="Path 27" d="M16.326-175.836l9.049,5.224a2.717,2.717,0,0,1,1.359,2.353v10.45a2.715,2.715,0,0,1-1.359,2.353l-9.049,5.226a2.719,2.719,0,0,1-2.717,0l-9.049-5.224A2.717,2.717,0,0,1,3.2-157.808v-10.45a2.716,2.716,0,0,1,1.359-2.353l9.049-5.226A2.719,2.719,0,0,1,16.326-175.836Z" fill="none"/>
    </clipPath>
    <clipPath id="clip-path-7">
      <path id="Path_30" data-name="Path 30" d="M16.729-164.733l-.02-.026,4.245-7.436L18.3-173.88l-3.332,8.13-3.37-8.221L8.976-172.2l4.249,7.443-.02.026-9.327-2.8-.024,3.294,8.838,1.444.019.083L4.3-156.759l2.591,2.141,7.082-6.539L13.3-150.8h3.338l-.673-10.35,7.019,6.481,2.655-2.083-8.414-5.954.019-.083,8.795-1.437-.111-3.261-9.2,2.76Z" fill="none"/>
    </clipPath>
    <clipPath id="clip-path-9">
      <path id="Path_32" data-name="Path 32" d="M13.608-157.6h2.717v-10.87H13.608Z" fill="none"/>
    </clipPath>
    <clipPath id="clip-path-10">
      <path id="Path_35" data-name="Path 35" d="M15.646-174.66a1.356,1.356,0,0,0-1.359,0l-9.049,5.226a1.361,1.361,0,0,0-.679,1.177v10.45a1.361,1.361,0,0,0,.679,1.177l9.049,5.224a1.356,1.356,0,0,0,1.359,0l9.049-5.224a1.361,1.361,0,0,0,.679-1.177v-10.45a1.361,1.361,0,0,0-.679-1.177Zm.679-1.177,9.049,5.224a2.717,2.717,0,0,1,1.359,2.353v10.45a2.715,2.715,0,0,1-1.359,2.353l-9.049,5.226a2.719,2.719,0,0,1-2.717,0l-9.049-5.224A2.717,2.717,0,0,1,3.2-157.808v-10.45a2.716,2.716,0,0,1,1.359-2.353l9.049-5.226A2.719,2.719,0,0,1,16.326-175.836Z" fill="none"/>
    </clipPath>
  </defs>
  <g id="Group_34" data-name="Group 34" transform="translate(-0.021 177.979)" clip-path="url(#clip-path)">
    <g id="Group_33" data-name="Group 33" clip-path="url(#clip-path-2)">
      <path id="Path_19" data-name="Path 19" d="M-.979-178.979H30.913v31.891H-.979Z" fill="#fdf4d9"/>
    </g>
  </g>
  <g id="Group_36" data-name="Group 36" transform="translate(-0.021 177.979)" clip-path="url(#clip-path-3)">
    <g id="Group_35" data-name="Group 35" clip-path="url(#clip-path-2)">
      <path id="Path_22" data-name="Path 22" d="M1.739-159.957H28.2v12.87H1.739Z" fill="#d09a0d"/>
    </g>
  </g>
  <g id="Group_38" data-name="Group 38" transform="translate(-0.021 177.979)" clip-path="url(#clip-path-5)">
    <g id="Group_37" data-name="Group 37" clip-path="url(#clip-path-2)">
      <path id="Path_25" data-name="Path 25" d="M2.2-177.321H27.733v28.576H2.2Z" fill="#f4ce41"/>
    </g>
  </g>
  <g id="Group_40" data-name="Group 40" transform="translate(-0.021 177.979)" clip-path="url(#clip-path-7)">
    <g id="Group_39" data-name="Group 39" clip-path="url(#clip-path-2)">
      <path id="Path_28" data-name="Path 28" d="M2.853-174.971H27.036V-149.8H2.853Z" fill="#fdda57"/>
    </g>
  </g>
  <g id="Group_41" data-name="Group 41" transform="translate(-0.021 177.979)" clip-path="url(#clip-path-9)">
    <path id="Path_31" data-name="Path 31" d="M12.608-169.468h4.717v12.87H12.608Z" fill="#fff"/>
  </g>
  <g id="Group_43" data-name="Group 43" transform="translate(-0.021 177.979)" clip-path="url(#clip-path-10)">
    <g id="Group_42" data-name="Group 42" clip-path="url(#clip-path-2)">
      <path id="Path_33" data-name="Path 33" d="M2.2-177.321H27.733v28.576H2.2Z" fill="#e3a714"/>
    </g>
  </g>
</svg>
