<svg xmlns="http://www.w3.org/2000/svg" width="21.039" height="12.283" viewBox="0 0 21.039 12.283">
  <path id="Path" d="M1.77,0h17.5a1.767,1.767,0,0,1,1.25,3.015l-8.75,8.75a1.757,1.757,0,0,1-2.493,0L.52,3.015A1.767,1.767,0,0,1,1.77,0Z" fill="rgba(59,70,103,0.2)"/>
</svg>
