<svg xmlns="http://www.w3.org/2000/svg" width="21.039" height="12.283" viewBox="0 0 21.039 12.283">
  <path id="Path" d="M20.52,9.268,11.77.518a1.757,1.757,0,0,0-2.493,0L.52,9.268a1.767,1.767,0,0,0,1.25,3.015h17.5A1.767,1.767,0,0,0,20.52,9.268Z" fill="rgba(59,70,103,0.2)"/>
</svg>
